^C:\USERS\KOKSIK\DOCUMENTS\VISUAL STUDIO 2015\PROJECTS\FILE MANAGER\FILE MANAGER\X64\RELEASE\FILEMANAGER.OBJ|C:\USERS\KOKSIK\DOCUMENTS\VISUAL STUDIO 2015\PROJECTS\FILE MANAGER\FILE MANAGER\X64\RELEASE\MAIN.OBJ
C:\USERS\KOKSIK\DOCUMENTS\VISUAL STUDIO 2015\PROJECTS\FILE MANAGER\X64\RELEASE\FILE MANAGER.EXE
C:\USERS\KOKSIK\DOCUMENTS\VISUAL STUDIO 2015\PROJECTS\FILE MANAGER\X64\RELEASE\FILE MANAGER.IPDB
C:\USERS\KOKSIK\DOCUMENTS\VISUAL STUDIO 2015\PROJECTS\FILE MANAGER\X64\RELEASE\FILE MANAGER.IOBJ
C:\USERS\KOKSIK\DOCUMENTS\VISUAL STUDIO 2015\PROJECTS\FILE MANAGER\X64\RELEASE\FILE MANAGER.PDB
