^C:\USERS\KOKSIK\DOCUMENTS\VISUAL STUDIO 2015\PROJECTS\FILE MANAGER\FILE MANAGER\DEBUG\FILEMANAGER.OBJ|C:\USERS\KOKSIK\DOCUMENTS\VISUAL STUDIO 2015\PROJECTS\FILE MANAGER\FILE MANAGER\DEBUG\MAIN.OBJ|C:\USERS\KOKSIK\DOCUMENTS\VISUAL STUDIO 2015\PROJECTS\FILE MANAGER\FILE MANAGER\DEBUG\MANAGERPANEL.OBJ
C:\USERS\KOKSIK\DOCUMENTS\VISUAL STUDIO 2015\PROJECTS\FILE MANAGER\DEBUG\FILE MANAGER.ILK
C:\USERS\KOKSIK\DOCUMENTS\VISUAL STUDIO 2015\PROJECTS\FILE MANAGER\DEBUG\FILE MANAGER.EXE
C:\USERS\KOKSIK\DOCUMENTS\VISUAL STUDIO 2015\PROJECTS\FILE MANAGER\DEBUG\FILE MANAGER.PDB
^D:\PROJEKTY GOTOWE\FILE MANAGER\FILE MANAGER\DEBUG\FILEMANAGER.OBJ|D:\PROJEKTY GOTOWE\FILE MANAGER\FILE MANAGER\DEBUG\MAIN.OBJ|D:\PROJEKTY GOTOWE\FILE MANAGER\FILE MANAGER\DEBUG\MANAGERPANEL.OBJ
D:\PROJEKTY GOTOWE\FILE MANAGER\DEBUG\FILE MANAGER.ILK
D:\PROJEKTY GOTOWE\FILE MANAGER\DEBUG\FILE MANAGER.EXE
D:\PROJEKTY GOTOWE\FILE MANAGER\DEBUG\FILE MANAGER.PDB
